<svg width="6" height="12" viewBox="0 0 6 12" fill="none" xmlns="http://www.w3.org/2000/svg" xmlns:xlink="http://www.w3.org/1999/xlink">
<rect width="6" height="12" fill="url(#pattern0)"/>
<defs>
<pattern id="pattern0" patternContentUnits="objectBoundingBox" width="1" height="1">
<use xlink:href="#image0_22_69" transform="scale(0.166667 0.0833333)"/>
</pattern>
<image id="image0_22_69" width="6" height="12" xlink:href="data:image/png;base64,iVBORw0KGgoAAAANSUhEUgAAAAYAAAAMCAYAAABBV8wuAAAAUklEQVQYlWO0jJzPwMDAYMDAwLCegYFBgQEKmKB0PbIgCLBAaQEksUQGBoYHIB0OaBIPYDr2IxsB48PswAAgCUYGBoYDSDIgPiNeHTSVYGBgAADjAwetkEKPggAAAABJRU5ErkJggg=="/>
</defs>
</svg>
