// Jest Snapshot v1, https://goo.gl/fbAQLP

exports[`component Sidebar snapshot component Sidebar 1`] = `
Object {
  "asFragment": [Function],
  "baseElement": <body>
    <div>
      <div
        class="sc-fEXmlR dQRmzS"
      >
        <form
          action="#"
        >
          <fieldset
            class="sc-bjfHbI fqbJEQ"
          >
            <legend
              class="sc-idXgbr gYSEIe"
            >
              Placing an order
            </legend>
            <label
              class="sc-bcXHqe btkZvY"
            >
              <p
                class="sc-gswNZR MaPJj"
              >
                Your name
              </p>
              <input
                class="sc-dkrFOg bUDTzq"
                name="name"
                placeholder="Enter your name"
                value=""
              />
            </label>
            <label
              class="sc-bcXHqe btkZvY"
            >
              <p
                class="sc-gswNZR MaPJj"
              >
                Your last name
              </p>
              <input
                class="sc-dkrFOg bUDTzq"
                name="lastName"
                placeholder="Enter your last name"
                value=""
              />
            </label>
            <label
              class="sc-bcXHqe btkZvY"
            >
              <p
                class="sc-gswNZR MaPJj"
              />
              <input
                class="sc-dkrFOg bUDTzq"
                label="Your age"
                name="age"
                placeholder="Enter your age"
                type="number"
                value=""
              />
            </label>
            <label
              class="sc-eDvSVe fHltqK"
            >
              <p
                class="sc-jSUZER tnQDT"
              >
                Your shipping address
              </p>
              <textarea
                class="sc-gKPRtg eRhuyj"
                cols="23"
                name="shippingAddress"
                placeholder="Enter your shipping address"
                rows="8"
              />
            </label>
            <label
              class="sc-ftTHYK jhTXQN"
            >
              <p
                class="sc-pyfCe eHGkuP"
              >
                Your phone number
              </p>
              <input
                class="sc-jrcTuL ducokP"
                inputmode="numeric"
                name="phone"
                type="text"
                value="(___) ___ __ __"
              />
            </label>
            <button
              class="sc-fnGiBr sc-dIfARi cKljUi cylKKD"
              type="submit"
            >
              Checkout
            </button>
          </fieldset>
        </form>
      </div>
    </div>
  </body>,
  "container": <div>
    <div
      class="sc-fEXmlR dQRmzS"
    >
      <form
        action="#"
      >
        <fieldset
          class="sc-bjfHbI fqbJEQ"
        >
          <legend
            class="sc-idXgbr gYSEIe"
          >
            Placing an order
          </legend>
          <label
            class="sc-bcXHqe btkZvY"
          >
            <p
              class="sc-gswNZR MaPJj"
            >
              Your name
            </p>
            <input
              class="sc-dkrFOg bUDTzq"
              name="name"
              placeholder="Enter your name"
              value=""
            />
          </label>
          <label
            class="sc-bcXHqe btkZvY"
          >
            <p
              class="sc-gswNZR MaPJj"
            >
              Your last name
            </p>
            <input
              class="sc-dkrFOg bUDTzq"
              name="lastName"
              placeholder="Enter your last name"
              value=""
            />
          </label>
          <label
            class="sc-bcXHqe btkZvY"
          >
            <p
              class="sc-gswNZR MaPJj"
            />
            <input
              class="sc-dkrFOg bUDTzq"
              label="Your age"
              name="age"
              placeholder="Enter your age"
              type="number"
              value=""
            />
          </label>
          <label
            class="sc-eDvSVe fHltqK"
          >
            <p
              class="sc-jSUZER tnQDT"
            >
              Your shipping address
            </p>
            <textarea
              class="sc-gKPRtg eRhuyj"
              cols="23"
              name="shippingAddress"
              placeholder="Enter your shipping address"
              rows="8"
            />
          </label>
          <label
            class="sc-ftTHYK jhTXQN"
          >
            <p
              class="sc-pyfCe eHGkuP"
            >
              Your phone number
            </p>
            <input
              class="sc-jrcTuL ducokP"
              inputmode="numeric"
              name="phone"
              type="text"
              value="(___) ___ __ __"
            />
          </label>
          <button
            class="sc-fnGiBr sc-dIfARi cKljUi cylKKD"
            type="submit"
          >
            Checkout
          </button>
        </fieldset>
      </form>
    </div>
  </div>,
  "debug": [Function],
  "findAllByAltText": [Function],
  "findAllByDisplayValue": [Function],
  "findAllByLabelText": [Function],
  "findAllByPlaceholderText": [Function],
  "findAllByRole": [Function],
  "findAllByTestId": [Function],
  "findAllByText": [Function],
  "findAllByTitle": [Function],
  "findByAltText": [Function],
  "findByDisplayValue": [Function],
  "findByLabelText": [Function],
  "findByPlaceholderText": [Function],
  "findByRole": [Function],
  "findByTestId": [Function],
  "findByText": [Function],
  "findByTitle": [Function],
  "getAllByAltText": [Function],
  "getAllByDisplayValue": [Function],
  "getAllByLabelText": [Function],
  "getAllByPlaceholderText": [Function],
  "getAllByRole": [Function],
  "getAllByTestId": [Function],
  "getAllByText": [Function],
  "getAllByTitle": [Function],
  "getByAltText": [Function],
  "getByDisplayValue": [Function],
  "getByLabelText": [Function],
  "getByPlaceholderText": [Function],
  "getByRole": [Function],
  "getByTestId": [Function],
  "getByText": [Function],
  "getByTitle": [Function],
  "queryAllByAltText": [Function],
  "queryAllByDisplayValue": [Function],
  "queryAllByLabelText": [Function],
  "queryAllByPlaceholderText": [Function],
  "queryAllByRole": [Function],
  "queryAllByTestId": [Function],
  "queryAllByText": [Function],
  "queryAllByTitle": [Function],
  "queryByAltText": [Function],
  "queryByDisplayValue": [Function],
  "queryByLabelText": [Function],
  "queryByPlaceholderText": [Function],
  "queryByRole": [Function],
  "queryByTestId": [Function],
  "queryByText": [Function],
  "queryByTitle": [Function],
  "rerender": [Function],
  "unmount": [Function],
}
`;
