// Jest Snapshot v1, https://goo.gl/fbAQLP

exports[`Cards should create Cards with cards item 1`] = `
Object {
  "asFragment": [Function],
  "baseElement": <body>
    <div>
      <div
        class="sc-bcXHqe krgFLa"
      >
        <div
          class="sc-gswNZR grrsJs"
        >
          <p
            class="sc-dkrFOg dSasvi"
          >
            TouYinger M4 FullHD
          </p>
          <p
            class="sc-hLBbgP gfYYen"
          >
            Колір: 
            White
          </p>
          <p
            class="sc-eDvSVe hgvRTv"
          >
            Артикуль: 
            12345
          </p>
          <img
            alt="TouYinger M4 FullHD"
            class="sc-jSUZER eyDjuj"
            src="https://images.prom.ua/3468122255_touyinger-m4-fullhd.jpg"
          />
          <p
            class="sc-gKPRtg ljwpLy"
          >
            Ціна: 
            3700
             грн.
          </p>
          <button
            class="sc-iBYQkv cfBTIQ"
            data-testid="btn-favorite-star"
            type="button"
          >
            <svg
              data-testid="favorite-star"
              style="fill: #D3D3D3;"
            >
              favoritStar.svg
            </svg>
          </button>
          <button
            class="sc-ftTHYK kSlofw"
            type="button"
          >
             Add to cart 
          </button>
        </div>
        <div
          class="sc-gswNZR grrsJs"
        >
          <p
            class="sc-dkrFOg dSasvi"
          >
            Touyinger T9 FullHD
          </p>
          <p
            class="sc-hLBbgP gfYYen"
          >
            Колір: 
            White
          </p>
          <p
            class="sc-eDvSVe hgvRTv"
          >
            Артикуль: 
            23456
          </p>
          <img
            alt="Touyinger T9 FullHD"
            class="sc-jSUZER eyDjuj"
            src="https://images.prom.ua/3757855178_w640_h640_3757855178.jpg"
          />
          <p
            class="sc-gKPRtg ljwpLy"
          >
            Ціна: 
            4400
             грн.
          </p>
          <button
            class="sc-iBYQkv cfBTIQ"
            data-testid="btn-favorite-star"
            type="button"
          >
            <svg
              data-testid="favorite-star"
              style="fill: #D3D3D3;"
            >
              favoritStar.svg
            </svg>
          </button>
          <button
            class="sc-ftTHYK kSlofw"
            type="button"
          >
             Add to cart 
          </button>
        </div>
      </div>
    </div>
  </body>,
  "container": <div>
    <div
      class="sc-bcXHqe krgFLa"
    >
      <div
        class="sc-gswNZR grrsJs"
      >
        <p
          class="sc-dkrFOg dSasvi"
        >
          TouYinger M4 FullHD
        </p>
        <p
          class="sc-hLBbgP gfYYen"
        >
          Колір: 
          White
        </p>
        <p
          class="sc-eDvSVe hgvRTv"
        >
          Артикуль: 
          12345
        </p>
        <img
          alt="TouYinger M4 FullHD"
          class="sc-jSUZER eyDjuj"
          src="https://images.prom.ua/3468122255_touyinger-m4-fullhd.jpg"
        />
        <p
          class="sc-gKPRtg ljwpLy"
        >
          Ціна: 
          3700
           грн.
        </p>
        <button
          class="sc-iBYQkv cfBTIQ"
          data-testid="btn-favorite-star"
          type="button"
        >
          <svg
            data-testid="favorite-star"
            style="fill: #D3D3D3;"
          >
            favoritStar.svg
          </svg>
        </button>
        <button
          class="sc-ftTHYK kSlofw"
          type="button"
        >
           Add to cart 
        </button>
      </div>
      <div
        class="sc-gswNZR grrsJs"
      >
        <p
          class="sc-dkrFOg dSasvi"
        >
          Touyinger T9 FullHD
        </p>
        <p
          class="sc-hLBbgP gfYYen"
        >
          Колір: 
          White
        </p>
        <p
          class="sc-eDvSVe hgvRTv"
        >
          Артикуль: 
          23456
        </p>
        <img
          alt="Touyinger T9 FullHD"
          class="sc-jSUZER eyDjuj"
          src="https://images.prom.ua/3757855178_w640_h640_3757855178.jpg"
        />
        <p
          class="sc-gKPRtg ljwpLy"
        >
          Ціна: 
          4400
           грн.
        </p>
        <button
          class="sc-iBYQkv cfBTIQ"
          data-testid="btn-favorite-star"
          type="button"
        >
          <svg
            data-testid="favorite-star"
            style="fill: #D3D3D3;"
          >
            favoritStar.svg
          </svg>
        </button>
        <button
          class="sc-ftTHYK kSlofw"
          type="button"
        >
           Add to cart 
        </button>
      </div>
    </div>
  </div>,
  "debug": [Function],
  "findAllByAltText": [Function],
  "findAllByDisplayValue": [Function],
  "findAllByLabelText": [Function],
  "findAllByPlaceholderText": [Function],
  "findAllByRole": [Function],
  "findAllByTestId": [Function],
  "findAllByText": [Function],
  "findAllByTitle": [Function],
  "findByAltText": [Function],
  "findByDisplayValue": [Function],
  "findByLabelText": [Function],
  "findByPlaceholderText": [Function],
  "findByRole": [Function],
  "findByTestId": [Function],
  "findByText": [Function],
  "findByTitle": [Function],
  "getAllByAltText": [Function],
  "getAllByDisplayValue": [Function],
  "getAllByLabelText": [Function],
  "getAllByPlaceholderText": [Function],
  "getAllByRole": [Function],
  "getAllByTestId": [Function],
  "getAllByText": [Function],
  "getAllByTitle": [Function],
  "getByAltText": [Function],
  "getByDisplayValue": [Function],
  "getByLabelText": [Function],
  "getByPlaceholderText": [Function],
  "getByRole": [Function],
  "getByTestId": [Function],
  "getByText": [Function],
  "getByTitle": [Function],
  "queryAllByAltText": [Function],
  "queryAllByDisplayValue": [Function],
  "queryAllByLabelText": [Function],
  "queryAllByPlaceholderText": [Function],
  "queryAllByRole": [Function],
  "queryAllByTestId": [Function],
  "queryAllByText": [Function],
  "queryAllByTitle": [Function],
  "queryByAltText": [Function],
  "queryByDisplayValue": [Function],
  "queryByLabelText": [Function],
  "queryByPlaceholderText": [Function],
  "queryByRole": [Function],
  "queryByTestId": [Function],
  "queryByText": [Function],
  "queryByTitle": [Function],
  "rerender": [Function],
  "unmount": [Function],
}
`;

exports[`Cards should create Cards with empty cards 1`] = `
Object {
  "asFragment": [Function],
  "baseElement": <body>
    <div>
      <div
        class="sc-bcXHqe krgFLa"
      />
    </div>
  </body>,
  "container": <div>
    <div
      class="sc-bcXHqe krgFLa"
    />
  </div>,
  "debug": [Function],
  "findAllByAltText": [Function],
  "findAllByDisplayValue": [Function],
  "findAllByLabelText": [Function],
  "findAllByPlaceholderText": [Function],
  "findAllByRole": [Function],
  "findAllByTestId": [Function],
  "findAllByText": [Function],
  "findAllByTitle": [Function],
  "findByAltText": [Function],
  "findByDisplayValue": [Function],
  "findByLabelText": [Function],
  "findByPlaceholderText": [Function],
  "findByRole": [Function],
  "findByTestId": [Function],
  "findByText": [Function],
  "findByTitle": [Function],
  "getAllByAltText": [Function],
  "getAllByDisplayValue": [Function],
  "getAllByLabelText": [Function],
  "getAllByPlaceholderText": [Function],
  "getAllByRole": [Function],
  "getAllByTestId": [Function],
  "getAllByText": [Function],
  "getAllByTitle": [Function],
  "getByAltText": [Function],
  "getByDisplayValue": [Function],
  "getByLabelText": [Function],
  "getByPlaceholderText": [Function],
  "getByRole": [Function],
  "getByTestId": [Function],
  "getByText": [Function],
  "getByTitle": [Function],
  "queryAllByAltText": [Function],
  "queryAllByDisplayValue": [Function],
  "queryAllByLabelText": [Function],
  "queryAllByPlaceholderText": [Function],
  "queryAllByRole": [Function],
  "queryAllByTestId": [Function],
  "queryAllByText": [Function],
  "queryAllByTitle": [Function],
  "queryByAltText": [Function],
  "queryByDisplayValue": [Function],
  "queryByLabelText": [Function],
  "queryByPlaceholderText": [Function],
  "queryByRole": [Function],
  "queryByTestId": [Function],
  "queryByText": [Function],
  "queryByTitle": [Function],
  "rerender": [Function],
  "unmount": [Function],
}
`;
