[
	{
		"title": "TouYinger M4 FullHD",
		"price": 3700,
		"url": "https://images.prom.ua/3468122255_touyinger-m4-fullhd.jpg",
		"article": 12345,
		"color": "White",
		"isFavorite": false
	},
	{
		"title": "Touyinger T9 FullHD",
		"price": 4400,
		"url": "https://images.prom.ua/3757855178_w640_h640_3757855178.jpg",
		"article": 23456,
		"color": "White",
		"isFavorite": false
	},
	{
		"title": "Everycom M8 FullHD",
		"price": 4600,
		"url": "https://images.prom.ua/3608592847_everycom-m8-fullhd.jpg",
		"article": 34567,
		"color": "Black",
		"isFavorite": false
	},
	{
		"title": "ThundeaL TD90 Pro FullHD",
		"price": 4600,
		"url": "https://images.prom.ua/3910548775_thundeal-td90-pro.jpg",
		"article": 45678,
		"color": "White",
		"isFavorite": false
	},
	{
		"title": "Everycom YG627 FullHD",
		"price": 7600,
		"url": "https://images.prom.ua/3990264854_everycom-yg627-fullhd.jpg",
		"article": 56789,
		"color": "Silver",
		"isFavorite": false
	},
	{
		"title": "Everycom L6 FullHD ",
		"price": 4900,
		"url": "https://images.prom.ua/2028391442_everycom-l6-fullhd.jpg",
		"article": 67891,
		"color": "White",
		"isFavorite": false
	},
	{
		"title": "Everycom R15 FullHD",
		"price": 5800,
		"url": "https://images.prom.ua/3363031741_w640_h640_full-hd-led.jpg",
		"article": 78912,
		"color": "Black",
		"isFavorite": false
	},
	{
		"title": "TouYinger Q10 FullHD",
		"price": 8500,
		"url": "https://images.prom.ua/4018793332_touyinger-q10-fullhd.jpg",
		"article": 89123,
		"color": "White",
		"isFavorite": false
	},
	{
		"title": "ThundeaL TD93 Pro FullHD",
		"price": 6800,
		"url": "https://images.prom.ua/3918565516_thundeal-td93-pro.jpg",
		"article": 91234,
		"color": "White",
		"isFavorite": false
	},
	{
		"title": "Touyinger H6 FullHD, Android version",
		"price": 8400,
		"url": "https://images.prom.ua/3947909292_touyinger-h6-fullhd.jpg",
		"article": 10123,
		"color": "Silver",
		"isFavorite": false
	},
	{
		"title": "ThundeaL TD93 FullHD, Android version",
		"price": 6800,
		"url": "https://images.prom.ua/4019347765_thundeal-td93-fullhd.jpg",
		"article": 11123,
		"color": "White",
		"isFavorite": false
	},
	{
		"title": "AAO YG650 FullHD",
		"price": 7300,
		"url": "https://images.prom.ua/4005051300_aao-yg650-fullhd.jpg",
		"article": 19345,
		"color": "Black",
		"isFavorite": false
	}
]