// Jest Snapshot v1, https://goo.gl/fbAQLP

exports[`Cards should create Card 1`] = `
Object {
  "asFragment": [Function],
  "baseElement": <body>
    <div>
      <p
        class="sc-bcXHqe hAOiTw"
      >
        TouYinger M4 FullHD
      </p>
      <p
        class="sc-gswNZR bpudMJ"
      >
        Колір: 
        White
      </p>
      <p
        class="sc-dkrFOg kxgGmD"
      >
        Артикуль: 
        12345
      </p>
      <img
        alt="TouYinger M4 FullHD"
        class="sc-hLBbgP dPEfmB"
        src="https://images.prom.ua/3468122255_touyinger-m4-fullhd.jpg"
      />
      <p
        class="sc-eDvSVe hxlXeM"
      >
        Ціна: 
        3700
         грн.
      </p>
      <button
        class="sc-jSUZER hcawQv"
        data-testid="btn-favorite-star"
        type="button"
      >
        <svg
          data-testid="favorite-star"
          style="fill: #D3D3D3;"
        >
          favoritStar.svg
        </svg>
      </button>
      <button
        class="sc-gKPRtg hywRkJ"
        type="button"
      >
         Add to cart 
      </button>
    </div>
  </body>,
  "container": <div>
    <p
      class="sc-bcXHqe hAOiTw"
    >
      TouYinger M4 FullHD
    </p>
    <p
      class="sc-gswNZR bpudMJ"
    >
      Колір: 
      White
    </p>
    <p
      class="sc-dkrFOg kxgGmD"
    >
      Артикуль: 
      12345
    </p>
    <img
      alt="TouYinger M4 FullHD"
      class="sc-hLBbgP dPEfmB"
      src="https://images.prom.ua/3468122255_touyinger-m4-fullhd.jpg"
    />
    <p
      class="sc-eDvSVe hxlXeM"
    >
      Ціна: 
      3700
       грн.
    </p>
    <button
      class="sc-jSUZER hcawQv"
      data-testid="btn-favorite-star"
      type="button"
    >
      <svg
        data-testid="favorite-star"
        style="fill: #D3D3D3;"
      >
        favoritStar.svg
      </svg>
    </button>
    <button
      class="sc-gKPRtg hywRkJ"
      type="button"
    >
       Add to cart 
    </button>
  </div>,
  "debug": [Function],
  "findAllByAltText": [Function],
  "findAllByDisplayValue": [Function],
  "findAllByLabelText": [Function],
  "findAllByPlaceholderText": [Function],
  "findAllByRole": [Function],
  "findAllByTestId": [Function],
  "findAllByText": [Function],
  "findAllByTitle": [Function],
  "findByAltText": [Function],
  "findByDisplayValue": [Function],
  "findByLabelText": [Function],
  "findByPlaceholderText": [Function],
  "findByRole": [Function],
  "findByTestId": [Function],
  "findByText": [Function],
  "findByTitle": [Function],
  "getAllByAltText": [Function],
  "getAllByDisplayValue": [Function],
  "getAllByLabelText": [Function],
  "getAllByPlaceholderText": [Function],
  "getAllByRole": [Function],
  "getAllByTestId": [Function],
  "getAllByText": [Function],
  "getAllByTitle": [Function],
  "getByAltText": [Function],
  "getByDisplayValue": [Function],
  "getByLabelText": [Function],
  "getByPlaceholderText": [Function],
  "getByRole": [Function],
  "getByTestId": [Function],
  "getByText": [Function],
  "getByTitle": [Function],
  "queryAllByAltText": [Function],
  "queryAllByDisplayValue": [Function],
  "queryAllByLabelText": [Function],
  "queryAllByPlaceholderText": [Function],
  "queryAllByRole": [Function],
  "queryAllByTestId": [Function],
  "queryAllByText": [Function],
  "queryAllByTitle": [Function],
  "queryByAltText": [Function],
  "queryByDisplayValue": [Function],
  "queryByLabelText": [Function],
  "queryByPlaceholderText": [Function],
  "queryByRole": [Function],
  "queryByTestId": [Function],
  "queryByText": [Function],
  "queryByTitle": [Function],
  "rerender": [Function],
  "unmount": [Function],
}
`;

exports[`Cards should create empty card 1`] = `
Object {
  "asFragment": [Function],
  "baseElement": <body>
    <div>
      <p
        class="sc-bcXHqe hAOiTw"
      />
      <p
        class="sc-gswNZR bpudMJ"
      >
        Колір: 
      </p>
      <p
        class="sc-dkrFOg kxgGmD"
      >
        Артикуль: 
      </p>
      <img
        class="sc-hLBbgP dPEfmB"
      />
      <p
        class="sc-eDvSVe hxlXeM"
      >
        Ціна: 
         грн.
      </p>
      <button
        class="sc-jSUZER hcawQv"
        data-testid="btn-favorite-star"
        type="button"
      >
        <svg
          data-testid="favorite-star"
          style="fill: #D3D3D3;"
        >
          favoritStar.svg
        </svg>
      </button>
      <button
        class="sc-gKPRtg hywRkJ"
        type="button"
      >
         Add to cart 
      </button>
    </div>
  </body>,
  "container": <div>
    <p
      class="sc-bcXHqe hAOiTw"
    />
    <p
      class="sc-gswNZR bpudMJ"
    >
      Колір: 
    </p>
    <p
      class="sc-dkrFOg kxgGmD"
    >
      Артикуль: 
    </p>
    <img
      class="sc-hLBbgP dPEfmB"
    />
    <p
      class="sc-eDvSVe hxlXeM"
    >
      Ціна: 
       грн.
    </p>
    <button
      class="sc-jSUZER hcawQv"
      data-testid="btn-favorite-star"
      type="button"
    >
      <svg
        data-testid="favorite-star"
        style="fill: #D3D3D3;"
      >
        favoritStar.svg
      </svg>
    </button>
    <button
      class="sc-gKPRtg hywRkJ"
      type="button"
    >
       Add to cart 
    </button>
  </div>,
  "debug": [Function],
  "findAllByAltText": [Function],
  "findAllByDisplayValue": [Function],
  "findAllByLabelText": [Function],
  "findAllByPlaceholderText": [Function],
  "findAllByRole": [Function],
  "findAllByTestId": [Function],
  "findAllByText": [Function],
  "findAllByTitle": [Function],
  "findByAltText": [Function],
  "findByDisplayValue": [Function],
  "findByLabelText": [Function],
  "findByPlaceholderText": [Function],
  "findByRole": [Function],
  "findByTestId": [Function],
  "findByText": [Function],
  "findByTitle": [Function],
  "getAllByAltText": [Function],
  "getAllByDisplayValue": [Function],
  "getAllByLabelText": [Function],
  "getAllByPlaceholderText": [Function],
  "getAllByRole": [Function],
  "getAllByTestId": [Function],
  "getAllByText": [Function],
  "getAllByTitle": [Function],
  "getByAltText": [Function],
  "getByDisplayValue": [Function],
  "getByLabelText": [Function],
  "getByPlaceholderText": [Function],
  "getByRole": [Function],
  "getByTestId": [Function],
  "getByText": [Function],
  "getByTitle": [Function],
  "queryAllByAltText": [Function],
  "queryAllByDisplayValue": [Function],
  "queryAllByLabelText": [Function],
  "queryAllByPlaceholderText": [Function],
  "queryAllByRole": [Function],
  "queryAllByTestId": [Function],
  "queryAllByText": [Function],
  "queryAllByTitle": [Function],
  "queryByAltText": [Function],
  "queryByDisplayValue": [Function],
  "queryByLabelText": [Function],
  "queryByPlaceholderText": [Function],
  "queryByRole": [Function],
  "queryByTestId": [Function],
  "queryByText": [Function],
  "queryByTitle": [Function],
  "rerender": [Function],
  "unmount": [Function],
}
`;
