// Jest Snapshot v1, https://goo.gl/fbAQLP

exports[`Modal should create snapshot modal 1`] = `
Object {
  "asFragment": [Function],
  "baseElement": <body>
    <div>
      <div
        class="sc-bcXHqe kTiasK"
      >
        <div
          class="sc-gswNZR iLbFOm"
        >
          <div
            class="sc-dkrFOg hDvmur"
          >
            <h2
              class="sc-eDvSVe gLnCso"
            />
            <button
              class="sc-hLBbgP djUID"
            >
              <svg>
                closed.svg
              </svg>
            </button>
          </div>
          <p
            class="sc-jSUZER dLOyvP"
          />
          <div
            class="sc-gKPRtg cQhoNs"
          />
        </div>
      </div>
    </div>
  </body>,
  "container": <div>
    <div
      class="sc-bcXHqe kTiasK"
    >
      <div
        class="sc-gswNZR iLbFOm"
      >
        <div
          class="sc-dkrFOg hDvmur"
        >
          <h2
            class="sc-eDvSVe gLnCso"
          />
          <button
            class="sc-hLBbgP djUID"
          >
            <svg>
              closed.svg
            </svg>
          </button>
        </div>
        <p
          class="sc-jSUZER dLOyvP"
        />
        <div
          class="sc-gKPRtg cQhoNs"
        />
      </div>
    </div>
  </div>,
  "debug": [Function],
  "findAllByAltText": [Function],
  "findAllByDisplayValue": [Function],
  "findAllByLabelText": [Function],
  "findAllByPlaceholderText": [Function],
  "findAllByRole": [Function],
  "findAllByTestId": [Function],
  "findAllByText": [Function],
  "findAllByTitle": [Function],
  "findByAltText": [Function],
  "findByDisplayValue": [Function],
  "findByLabelText": [Function],
  "findByPlaceholderText": [Function],
  "findByRole": [Function],
  "findByTestId": [Function],
  "findByText": [Function],
  "findByTitle": [Function],
  "getAllByAltText": [Function],
  "getAllByDisplayValue": [Function],
  "getAllByLabelText": [Function],
  "getAllByPlaceholderText": [Function],
  "getAllByRole": [Function],
  "getAllByTestId": [Function],
  "getAllByText": [Function],
  "getAllByTitle": [Function],
  "getByAltText": [Function],
  "getByDisplayValue": [Function],
  "getByLabelText": [Function],
  "getByPlaceholderText": [Function],
  "getByRole": [Function],
  "getByTestId": [Function],
  "getByText": [Function],
  "getByTitle": [Function],
  "queryAllByAltText": [Function],
  "queryAllByDisplayValue": [Function],
  "queryAllByLabelText": [Function],
  "queryAllByPlaceholderText": [Function],
  "queryAllByRole": [Function],
  "queryAllByTestId": [Function],
  "queryAllByText": [Function],
  "queryAllByTitle": [Function],
  "queryByAltText": [Function],
  "queryByDisplayValue": [Function],
  "queryByLabelText": [Function],
  "queryByPlaceholderText": [Function],
  "queryByRole": [Function],
  "queryByTestId": [Function],
  "queryByText": [Function],
  "queryByTitle": [Function],
  "rerender": [Function],
  "unmount": [Function],
}
`;

exports[`Modal should render text component without props 1`] = `
Object {
  "asFragment": [Function],
  "baseElement": <body>
    <div>
      <div
        class="sc-bcXHqe kTiasK"
      >
        <div
          class="sc-gswNZR iLbFOm"
        >
          <div
            class="sc-dkrFOg hDvmur"
          >
            <h2
              class="sc-eDvSVe gLnCso"
            />
            <button
              class="sc-hLBbgP djUID"
            >
              <svg>
                closed.svg
              </svg>
            </button>
          </div>
          <p
            class="sc-jSUZER dLOyvP"
          >
            Test text
          </p>
          <div
            class="sc-gKPRtg cQhoNs"
          />
        </div>
      </div>
    </div>
  </body>,
  "container": <div>
    <div
      class="sc-bcXHqe kTiasK"
    >
      <div
        class="sc-gswNZR iLbFOm"
      >
        <div
          class="sc-dkrFOg hDvmur"
        >
          <h2
            class="sc-eDvSVe gLnCso"
          />
          <button
            class="sc-hLBbgP djUID"
          >
            <svg>
              closed.svg
            </svg>
          </button>
        </div>
        <p
          class="sc-jSUZER dLOyvP"
        >
          Test text
        </p>
        <div
          class="sc-gKPRtg cQhoNs"
        />
      </div>
    </div>
  </div>,
  "debug": [Function],
  "findAllByAltText": [Function],
  "findAllByDisplayValue": [Function],
  "findAllByLabelText": [Function],
  "findAllByPlaceholderText": [Function],
  "findAllByRole": [Function],
  "findAllByTestId": [Function],
  "findAllByText": [Function],
  "findAllByTitle": [Function],
  "findByAltText": [Function],
  "findByDisplayValue": [Function],
  "findByLabelText": [Function],
  "findByPlaceholderText": [Function],
  "findByRole": [Function],
  "findByTestId": [Function],
  "findByText": [Function],
  "findByTitle": [Function],
  "getAllByAltText": [Function],
  "getAllByDisplayValue": [Function],
  "getAllByLabelText": [Function],
  "getAllByPlaceholderText": [Function],
  "getAllByRole": [Function],
  "getAllByTestId": [Function],
  "getAllByText": [Function],
  "getAllByTitle": [Function],
  "getByAltText": [Function],
  "getByDisplayValue": [Function],
  "getByLabelText": [Function],
  "getByPlaceholderText": [Function],
  "getByRole": [Function],
  "getByTestId": [Function],
  "getByText": [Function],
  "getByTitle": [Function],
  "queryAllByAltText": [Function],
  "queryAllByDisplayValue": [Function],
  "queryAllByLabelText": [Function],
  "queryAllByPlaceholderText": [Function],
  "queryAllByRole": [Function],
  "queryAllByTestId": [Function],
  "queryAllByText": [Function],
  "queryAllByTitle": [Function],
  "queryByAltText": [Function],
  "queryByDisplayValue": [Function],
  "queryByLabelText": [Function],
  "queryByPlaceholderText": [Function],
  "queryByRole": [Function],
  "queryByTestId": [Function],
  "queryByText": [Function],
  "queryByTitle": [Function],
  "rerender": [Function],
  "unmount": [Function],
}
`;

exports[`Modal should render title component with props 1`] = `
Object {
  "asFragment": [Function],
  "baseElement": <body>
    <div>
      <div
        class="sc-bcXHqe kTiasK"
      >
        <div
          class="sc-gswNZR iLbFOm"
        >
          <div
            class="sc-dkrFOg hDvmur"
          >
            <h2
              class="sc-eDvSVe gLnCso"
            >
              Test title
            </h2>
            <button
              class="sc-hLBbgP djUID"
            >
              <svg>
                closed.svg
              </svg>
            </button>
          </div>
          <p
            class="sc-jSUZER dLOyvP"
          />
          <div
            class="sc-gKPRtg cQhoNs"
          />
        </div>
      </div>
    </div>
  </body>,
  "container": <div>
    <div
      class="sc-bcXHqe kTiasK"
    >
      <div
        class="sc-gswNZR iLbFOm"
      >
        <div
          class="sc-dkrFOg hDvmur"
        >
          <h2
            class="sc-eDvSVe gLnCso"
          >
            Test title
          </h2>
          <button
            class="sc-hLBbgP djUID"
          >
            <svg>
              closed.svg
            </svg>
          </button>
        </div>
        <p
          class="sc-jSUZER dLOyvP"
        />
        <div
          class="sc-gKPRtg cQhoNs"
        />
      </div>
    </div>
  </div>,
  "debug": [Function],
  "findAllByAltText": [Function],
  "findAllByDisplayValue": [Function],
  "findAllByLabelText": [Function],
  "findAllByPlaceholderText": [Function],
  "findAllByRole": [Function],
  "findAllByTestId": [Function],
  "findAllByText": [Function],
  "findAllByTitle": [Function],
  "findByAltText": [Function],
  "findByDisplayValue": [Function],
  "findByLabelText": [Function],
  "findByPlaceholderText": [Function],
  "findByRole": [Function],
  "findByTestId": [Function],
  "findByText": [Function],
  "findByTitle": [Function],
  "getAllByAltText": [Function],
  "getAllByDisplayValue": [Function],
  "getAllByLabelText": [Function],
  "getAllByPlaceholderText": [Function],
  "getAllByRole": [Function],
  "getAllByTestId": [Function],
  "getAllByText": [Function],
  "getAllByTitle": [Function],
  "getByAltText": [Function],
  "getByDisplayValue": [Function],
  "getByLabelText": [Function],
  "getByPlaceholderText": [Function],
  "getByRole": [Function],
  "getByTestId": [Function],
  "getByText": [Function],
  "getByTitle": [Function],
  "queryAllByAltText": [Function],
  "queryAllByDisplayValue": [Function],
  "queryAllByLabelText": [Function],
  "queryAllByPlaceholderText": [Function],
  "queryAllByRole": [Function],
  "queryAllByTestId": [Function],
  "queryAllByText": [Function],
  "queryAllByTitle": [Function],
  "queryByAltText": [Function],
  "queryByDisplayValue": [Function],
  "queryByLabelText": [Function],
  "queryByPlaceholderText": [Function],
  "queryByRole": [Function],
  "queryByTestId": [Function],
  "queryByText": [Function],
  "queryByTitle": [Function],
  "rerender": [Function],
  "unmount": [Function],
}
`;
